{
  "albums": [],
  "playlists": [],
  "tracks": [
    {
      "artists": [
        {
          "external_urls": {
            "spotify": "https://open.spotify.com/artist/0YC192cP3KPCRWx8zr8MfZ"
          },
          "href": "https://api.spotify.com/v1/artists/0YC192cP3KPCRWx8zr8MfZ",
          "id": "0YC192cP3KPCRWx8zr8MfZ",
          "name": "Hans Zimmer",
          "type": "artist",
          "uri": "spotify:artist:0YC192cP3KPCRWx8zr8MfZ"
        },
        {
          "external_urls": {
            "spotify": "https://open.spotify.com/artist/5svDnd8joFhbpbA3Ar0CfN"
          },
          "href": "https://api.spotify.com/v1/artists/5svDnd8joFhbpbA3Ar0CfN",
          "id": "5svDnd8joFhbpbA3Ar0CfN",
          "name": "Junkie XL",
          "type": "artist",
          "uri": "spotify:artist:5svDnd8joFhbpbA3Ar0CfN"
        }
      ],
      "available_markets": [
        "AD",
        "AR",
        "AT",
        "AU",
        "BE",
        "BG",
        "BO",
        "BR",
        "CH",
        "CL",
        "CO",
        "CR",
        "CY",
        "CZ",
        "DE",
        "DK",
        "DO",
        "EC",
        "EE",
        "ES",
        "FI",
        "FR",
        "GB",
        "GR",
        "GT",
        "HK",
        "HN",
        "HU",
        "ID",
        "IE",
        "IS",
        "IT",
        "JP",
        "LI",
        "LT",
        "LU",
        "LV",
        "MC",
        "MT",
        "MX",
        "MY",
        "NI",
        "NL",
        "NO",
        "NZ",
        "PA",
        "PE",
        "PH",
        "PL",
        "PT",
        "PY",
        "SE",
        "SG",
        "SK",
        "SV",
        "TR",
        "TW",
        "UY"
      ],
      "disc_number": 1,
      "duration_ms": 227266,
      "explicit": false,
      "external_urls": {
        "spotify": "https://open.spotify.com/track/4G3DXzZf0J3EFWgY1jfFbJ"
      },
      "href": "https://api.spotify.com/v1/tracks/4G3DXzZf0J3EFWgY1jfFbJ",
      "id": "4G3DXzZf0J3EFWgY1jfFbJ",
      "name": "Beautiful Lie",
      "preview_url": "https://p.scdn.co/mp3-preview/dd890aa7eb6295f60b3cb34c1918f5f26881bbea",
      "track_number": 1,
      "type": "track",
      "uri": "spotify:track:4G3DXzZf0J3EFWgY1jfFbJ"
    },
    {
      "artists": [
        {
          "external_urls": {
            "spotify": "https://open.spotify.com/artist/0YC192cP3KPCRWx8zr8MfZ"
          },
          "href": "https://api.spotify.com/v1/artists/0YC192cP3KPCRWx8zr8MfZ",
          "id": "0YC192cP3KPCRWx8zr8MfZ",
          "name": "Hans Zimmer",
          "type": "artist",
          "uri": "spotify:artist:0YC192cP3KPCRWx8zr8MfZ"
        },
        {
          "external_urls": {
            "spotify": "https://open.spotify.com/artist/5svDnd8joFhbpbA3Ar0CfN"
          },
          "href": "https://api.spotify.com/v1/artists/5svDnd8joFhbpbA3Ar0CfN",
          "id": "5svDnd8joFhbpbA3Ar0CfN",
          "name": "Junkie XL",
          "type": "artist",
          "uri": "spotify:artist:5svDnd8joFhbpbA3Ar0CfN"
        }
      ],
      "available_markets": [
        "AD",
        "AR",
        "AT",
        "AU",
        "BE",
        "BG",
        "BO",
        "BR",
        "CH",
        "CL",
        "CO",
        "CR",
        "CY",
        "CZ",
        "DE",
        "DK",
        "DO",
        "EC",
        "EE",
        "ES",
        "FI",
        "FR",
        "GB",
        "GR",
        "GT",
        "HK",
        "HN",
        "HU",
        "ID",
        "IE",
        "IS",
        "IT",
        "JP",
        "LI",
        "LT",
        "LU",
        "LV",
        "MC",
        "MT",
        "MX",
        "MY",
        "NI",
        "NL",
        "NO",
        "NZ",
        "PA",
        "PE",
        "PH",
        "PL",
        "PT",
        "PY",
        "SE",
        "SG",
        "SK",
        "SV",
        "TR",
        "TW",
        "UY"
      ],
      "disc_number": 1,
      "duration_ms": 276226,
      "explicit": false,
      "external_urls": {
        "spotify": "https://open.spotify.com/track/15xFPuokj4Lg8if76rlOXG"
      },
      "href": "https://api.spotify.com/v1/tracks/15xFPuokj4Lg8if76rlOXG",
      "id": "15xFPuokj4Lg8if76rlOXG",
      "name": "Their War Here",
      "preview_url": "https://p.scdn.co/mp3-preview/79f7ead56433fd18c1e1360aa8c8bc72461a6b2e",
      "track_number": 2,
      "type": "track",
      "uri": "spotify:track:15xFPuokj4Lg8if76rlOXG"
    },
    {
      "artists": [
        {
          "external_urls": {
            "spotify": "https://open.spotify.com/artist/0YC192cP3KPCRWx8zr8MfZ"
          },
          "href": "https://api.spotify.com/v1/artists/0YC192cP3KPCRWx8zr8MfZ",
          "id": "0YC192cP3KPCRWx8zr8MfZ",
          "name": "Hans Zimmer",
          "type": "artist",
          "uri": "spotify:artist:0YC192cP3KPCRWx8zr8MfZ"
        },
        {
          "external_urls": {
            "spotify": "https://open.spotify.com/artist/5svDnd8joFhbpbA3Ar0CfN"
          },
          "href": "https://api.spotify.com/v1/artists/5svDnd8joFhbpbA3Ar0CfN",
          "id": "5svDnd8joFhbpbA3Ar0CfN",
          "name": "Junkie XL",
          "type": "artist",
          "uri": "spotify:artist:5svDnd8joFhbpbA3Ar0CfN"
        }
      ],
      "available_markets": [
        "AD",
        "AR",
        "AT",
        "AU",
        "BE",
        "BG",
        "BO",
        "BR",
        "CH",
        "CL",
        "CO",
        "CR",
        "CY",
        "CZ",
        "DE",
        "DK",
        "DO",
        "EC",
        "EE",
        "ES",
        "FI",
        "FR",
        "GB",
        "GR",
        "GT",
        "HK",
        "HN",
        "HU",
        "ID",
        "IE",
        "IS",
        "IT",
        "JP",
        "LI",
        "LT",
        "LU",
        "LV",
        "MC",
        "MT",
        "MX",
        "MY",
        "NI",
        "NL",
        "NO",
        "NZ",
        "PA",
        "PE",
        "PH",
        "PL",
        "PT",
        "PY",
        "SE",
        "SG",
        "SK",
        "SV",
        "TR",
        "TW",
        "UY"
      ],
      "disc_number": 1,
      "duration_ms": 211986,
      "explicit": false,
      "external_urls": {
        "spotify": "https://open.spotify.com/track/2I4fmmJB8TieUwxEetZrwg"
      },
      "href": "https://api.spotify.com/v1/tracks/2I4fmmJB8TieUwxEetZrwg",
      "id": "2I4fmmJB8TieUwxEetZrwg",
      "name": "The Red Capes Are Coming",
      "preview_url": "https://p.scdn.co/mp3-preview/630f4afc91a5e38516d53ed1b8b137ddc808b60d",
      "track_number": 3,
      "type": "track",
      "uri": "spotify:track:2I4fmmJB8TieUwxEetZrwg"
    },
    {
      "artists": [
        {
          "external_urls": {
            "spotify": "https://open.spotify.com/artist/0YC192cP3KPCRWx8zr8MfZ"
          },
          "href": "https://api.spotify.com/v1/artists/0YC192cP3KPCRWx8zr8MfZ",
          "id": "0YC192cP3KPCRWx8zr8MfZ",
          "name": "Hans Zimmer",
          "type": "artist",
          "uri": "spotify:artist:0YC192cP3KPCRWx8zr8MfZ"
        },
        {
          "external_urls": {
            "spotify": "https://open.spotify.com/artist/5svDnd8joFhbpbA3Ar0CfN"
          },
          "href": "https://api.spotify.com/v1/artists/5svDnd8joFhbpbA3Ar0CfN",
          "id": "5svDnd8joFhbpbA3Ar0CfN",
          "name": "Junkie XL",
          "type": "artist",
          "uri": "spotify:artist:5svDnd8joFhbpbA3Ar0CfN"
        }
      ],
      "available_markets": [
        "AD",
        "AR",
        "AT",
        "AU",
        "BE",
        "BG",
        "BO",
        "BR",
        "CH",
        "CL",
        "CO",
        "CR",
        "CY",
        "CZ",
        "DE",
        "DK",
        "DO",
        "EC",
        "EE",
        "ES",
        "FI",
        "FR",
        "GB",
        "GR",
        "GT",
        "HK",
        "HN",
        "HU",
        "ID",
        "IE",
        "IS",
        "IT",
        "JP",
        "LI",
        "LT",
        "LU",
        "LV",
        "MC",
        "MT",
        "MX",
        "MY",
        "NI",
        "NL",
        "NO",
        "NZ",
        "PA",
        "PE",
        "PH",
        "PL",
        "PT",
        "PY",
        "SE",
        "SG",
        "SK",
        "SV",
        "TR",
        "TW",
        "UY"
      ],
      "disc_number": 1,
      "duration_ms": 242080,
      "explicit": false,
      "external_urls": {
        "spotify": "https://open.spotify.com/track/40MgL1IGANBuja0zXPbN0W"
      },
      "href": "https://api.spotify.com/v1/tracks/40MgL1IGANBuja0zXPbN0W",
      "id": "40MgL1IGANBuja0zXPbN0W",
      "name": "Day Of The Dead",
      "preview_url": "https://p.scdn.co/mp3-preview/04c051dd657df95f88fcd1a642b2b2277fc51610",
      "track_number": 4,
      "type": "track",
      "uri": "spotify:track:40MgL1IGANBuja0zXPbN0W"
    },
    {
      "artists": [
        {
          "external_urls": {
            "spotify": "https://open.spotify.com/artist/0YC192cP3KPCRWx8zr8MfZ"
          },
          "href": "https://api.spotify.com/v1/artists/0YC192cP3KPCRWx8zr8MfZ",
          "id": "0YC192cP3KPCRWx8zr8MfZ",
          "name": "Hans Zimmer",
          "type": "artist",
          "uri": "spotify:artist:0YC192cP3KPCRWx8zr8MfZ"
        },
        {
          "external_urls": {
            "spotify": "https://open.spotify.com/artist/5svDnd8joFhbpbA3Ar0CfN"
          },
          "href": "https://api.spotify.com/v1/artists/5svDnd8joFhbpbA3Ar0CfN",
          "id": "5svDnd8joFhbpbA3Ar0CfN",
          "name": "Junkie XL",
          "type": "artist",
          "uri": "spotify:artist:5svDnd8joFhbpbA3Ar0CfN"
        }
      ],
      "available_markets": [
        "AD",
        "AR",
        "AT",
        "AU",
        "BE",
        "BG",
        "BO",
        "BR",
        "CH",
        "CL",
        "CO",
        "CR",
        "CY",
        "CZ",
        "DE",
        "DK",
        "DO",
        "EC",
        "EE",
        "ES",
        "FI",
        "FR",
        "GB",
        "GR",
        "GT",
        "HK",
        "HN",
        "HU",
        "ID",
        "IE",
        "IS",
        "IT",
        "JP",
        "LI",
        "LT",
        "LU",
        "LV",
        "MC",
        "MT",
        "MX",
        "MY",
        "NI",
        "NL",
        "NO",
        "NZ",
        "PA",
        "PE",
        "PH",
        "PL",
        "PT",
        "PY",
        "SE",
        "SG",
        "SK",
        "SV",
        "TR",
        "TW",
        "UY"
      ],
      "disc_number": 1,
      "duration_ms": 346746,
      "explicit": false,
      "external_urls": {
        "spotify": "https://open.spotify.com/track/47q8TxNygd1EV89Kq7uwe2"
      },
      "href": "https://api.spotify.com/v1/tracks/47q8TxNygd1EV89Kq7uwe2",
      "id": "47q8TxNygd1EV89Kq7uwe2",
      "name": "Is She With You?",
      "preview_url": "https://p.scdn.co/mp3-preview/ac224f44c7a2d5e71659ab17be7de850ffd39b63",
      "track_number": 11,
      "type": "track",
      "uri": "spotify:track:47q8TxNygd1EV89Kq7uwe2"
    },
    {
      "artists": [
        {
          "external_urls": {
            "spotify": "https://open.spotify.com/artist/0YC192cP3KPCRWx8zr8MfZ"
          },
          "href": "https://api.spotify.com/v1/artists/0YC192cP3KPCRWx8zr8MfZ",
          "id": "0YC192cP3KPCRWx8zr8MfZ",
          "name": "Hans Zimmer",
          "type": "artist",
          "uri": "spotify:artist:0YC192cP3KPCRWx8zr8MfZ"
        },
        {
          "external_urls": {
            "spotify": "https://open.spotify.com/artist/5svDnd8joFhbpbA3Ar0CfN"
          },
          "href": "https://api.spotify.com/v1/artists/5svDnd8joFhbpbA3Ar0CfN",
          "id": "5svDnd8joFhbpbA3Ar0CfN",
          "name": "Junkie XL",
          "type": "artist",
          "uri": "spotify:artist:5svDnd8joFhbpbA3Ar0CfN"
        }
      ],
      "available_markets": [
        "AD",
        "AR",
        "AT",
        "AU",
        "BE",
        "BG",
        "BO",
        "BR",
        "CH",
        "CL",
        "CO",
        "CR",
        "CY",
        "CZ",
        "DE",
        "DK",
        "DO",
        "EC",
        "EE",
        "ES",
        "FI",
        "FR",
        "GB",
        "GR",
        "GT",
        "HK",
        "HN",
        "HU",
        "ID",
        "IE",
        "IS",
        "IT",
        "JP",
        "LI",
        "LT",
        "LU",
        "LV",
        "MC",
        "MT",
        "MX",
        "MY",
        "NI",
        "NL",
        "NO",
        "NZ",
        "PA",
        "PE",
        "PH",
        "PL",
        "PT",
        "PY",
        "SE",
        "SG",
        "SK",
        "SV",
        "TR",
        "TW",
        "UY"
      ],
      "disc_number": 2,
      "duration_ms": 211320,
      "explicit": false,
      "external_urls": {
        "spotify": "https://open.spotify.com/track/3tO9trCcWrxwJnzagZ9rVD"
      },
      "href": "https://api.spotify.com/v1/tracks/3tO9trCcWrxwJnzagZ9rVD",
      "id": "3tO9trCcWrxwJnzagZ9rVD",
      "name": "May I Help You, Mr. Wayne? (Bonus Track)",
      "preview_url": "https://p.scdn.co/mp3-preview/1e3e475a83df394bc7e952532abc68ad35793a85",
      "track_number": 3,
      "type": "track",
      "uri": "spotify:track:3tO9trCcWrxwJnzagZ9rVD"
    },
    {
      "artists": [
        {
          "external_urls": {
            "spotify": "https://open.spotify.com/artist/6uhyakkTnWoxbEKn9pIc6V"
          },
          "href": "https://api.spotify.com/v1/artists/6uhyakkTnWoxbEKn9pIc6V",
          "id": "6uhyakkTnWoxbEKn9pIc6V",
          "name": "John Ottman",
          "type": "artist",
          "uri": "spotify:artist:6uhyakkTnWoxbEKn9pIc6V"
        }
      ],
      "available_markets": [
        "AD",
        "AR",
        "AT",
        "AU",
        "BE",
        "BG",
        "BO",
        "BR",
        "CA",
        "CH",
        "CL",
        "CO",
        "CR",
        "CY",
        "CZ",
        "DE",
        "DK",
        "DO",
        "EC",
        "EE",
        "ES",
        "FI",
        "FR",
        "GR",
        "GT",
        "HK",
        "HN",
        "HU",
        "ID",
        "IE",
        "IS",
        "IT",
        "JP",
        "LI",
        "LT",
        "LU",
        "LV",
        "MC",
        "MT",
        "MX",
        "MY",
        "NI",
        "NL",
        "NO",
        "NZ",
        "PA",
        "PE",
        "PH",
        "PL",
        "PT",
        "PY",
        "SE",
        "SG",
        "SK",
        "SV",
        "TR",
        "TW",
        "US",
        "UY"
      ],
      "disc_number": 1,
      "duration_ms": 255813,
      "explicit": false,
      "external_urls": {
        "spotify": "https://open.spotify.com/track/0mKKZXwq2ramGdeoBRvKtd"
      },
      "href": "https://api.spotify.com/v1/tracks/0mKKZXwq2ramGdeoBRvKtd",
      "id": "0mKKZXwq2ramGdeoBRvKtd",
      "name": "Reprise / Fly Away",
      "preview_url": "https://p.scdn.co/mp3-preview/3eb1506704bc7fe3e835365342ad73c2d3eeeb57",
      "track_number": 15,
      "type": "track",
      "uri": "spotify:track:0mKKZXwq2ramGdeoBRvKtd"
    },
    {
      "artists": [
        {
          "external_urls": {
            "spotify": "https://open.spotify.com/artist/7rWaoGPbda2WDfdAX0GhUw"
          },
          "href": "https://api.spotify.com/v1/artists/7rWaoGPbda2WDfdAX0GhUw",
          "id": "7rWaoGPbda2WDfdAX0GhUw",
          "name": "Massive Gold",
          "type": "artist",
          "uri": "spotify:artist:7rWaoGPbda2WDfdAX0GhUw"
        }
      ],
      "available_markets": [
        "AD",
        "AR",
        "AT",
        "AU",
        "BE",
        "BG",
        "BO",
        "BR",
        "CA",
        "CH",
        "CL",
        "CO",
        "CR",
        "CY",
        "CZ",
        "DE",
        "DK",
        "DO",
        "EC",
        "EE",
        "ES",
        "FI",
        "FR",
        "GB",
        "GR",
        "GT",
        "HK",
        "HN",
        "HU",
        "ID",
        "IE",
        "IS",
        "IT",
        "JP",
        "LI",
        "LT",
        "LU",
        "LV",
        "MC",
        "MT",
        "MX",
        "MY",
        "NI",
        "NL",
        "NO",
        "NZ",
        "PA",
        "PE",
        "PH",
        "PL",
        "PT",
        "PY",
        "SE",
        "SG",
        "SK",
        "SV",
        "TR",
        "TW",
        "US",
        "UY"
      ],
      "disc_number": 1,
      "duration_ms": 289411,
      "explicit": false,
      "external_urls": {
        "spotify": "https://open.spotify.com/track/4aWYlaSLp0bEfvUngTZNst"
      },
      "href": "https://api.spotify.com/v1/tracks/4aWYlaSLp0bEfvUngTZNst",
      "id": "4aWYlaSLp0bEfvUngTZNst",
      "name": "Trembling",
      "preview_url": "https://p.scdn.co/mp3-preview/d4411f7f74c83ead39ae675fd6662dd18ace954b",
      "track_number": 4,
      "type": "track",
      "uri": "spotify:track:4aWYlaSLp0bEfvUngTZNst"
    },
    {
      "artists": [
        {
          "external_urls": {
            "spotify": "https://open.spotify.com/artist/7rWaoGPbda2WDfdAX0GhUw"
          },
          "href": "https://api.spotify.com/v1/artists/7rWaoGPbda2WDfdAX0GhUw",
          "id": "7rWaoGPbda2WDfdAX0GhUw",
          "name": "Massive Gold",
          "type": "artist",
          "uri": "spotify:artist:7rWaoGPbda2WDfdAX0GhUw"
        },
        {
          "external_urls": {
            "spotify": "https://open.spotify.com/artist/2K5FgjNSQzh33fRGw404Ya"
          },
          "href": "https://api.spotify.com/v1/artists/2K5FgjNSQzh33fRGw404Ya",
          "id": "2K5FgjNSQzh33fRGw404Ya",
          "name": "Io Vita",
          "type": "artist",
          "uri": "spotify:artist:2K5FgjNSQzh33fRGw404Ya"
        }
      ],
      "available_markets": [
        "AD",
        "AR",
        "AT",
        "AU",
        "BE",
        "BG",
        "BO",
        "BR",
        "CA",
        "CH",
        "CL",
        "CO",
        "CR",
        "CY",
        "CZ",
        "DE",
        "DK",
        "DO",
        "EC",
        "EE",
        "ES",
        "FI",
        "FR",
        "GB",
        "GR",
        "GT",
        "HK",
        "HN",
        "HU",
        "ID",
        "IE",
        "IS",
        "IT",
        "JP",
        "LI",
        "LT",
        "LU",
        "LV",
        "MC",
        "MT",
        "MX",
        "MY",
        "NI",
        "NL",
        "NO",
        "NZ",
        "PA",
        "PE",
        "PH",
        "PL",
        "PT",
        "PY",
        "SE",
        "SG",
        "SK",
        "SV",
        "TR",
        "TW",
        "US",
        "UY"
      ],
      "disc_number": 1,
      "duration_ms": 369736,
      "explicit": false,
      "external_urls": {
        "spotify": "https://open.spotify.com/track/7d6FHLrDfDhIUrW7a0fU3V"
      },
      "href": "https://api.spotify.com/v1/tracks/7d6FHLrDfDhIUrW7a0fU3V",
      "id": "7d6FHLrDfDhIUrW7a0fU3V",
      "name": "Truly in Love",
      "preview_url": "https://p.scdn.co/mp3-preview/05a62c3a57e3d96795ad8a56631e9dbbcbf0325d",
      "track_number": 13,
      "type": "track",
      "uri": "spotify:track:7d6FHLrDfDhIUrW7a0fU3V"
    },
    {
      "artists": [
        {
          "external_urls": {
            "spotify": "https://open.spotify.com/artist/7rWaoGPbda2WDfdAX0GhUw"
          },
          "href": "https://api.spotify.com/v1/artists/7rWaoGPbda2WDfdAX0GhUw",
          "id": "7rWaoGPbda2WDfdAX0GhUw",
          "name": "Massive Gold",
          "type": "artist",
          "uri": "spotify:artist:7rWaoGPbda2WDfdAX0GhUw"
        },
        {
          "external_urls": {
            "spotify": "https://open.spotify.com/artist/4slVajIYhlKsk3MlhJMzwn"
          },
          "href": "https://api.spotify.com/v1/artists/4slVajIYhlKsk3MlhJMzwn",
          "id": "4slVajIYhlKsk3MlhJMzwn",
          "name": "Rainfairy",
          "type": "artist",
          "uri": "spotify:artist:4slVajIYhlKsk3MlhJMzwn"
        }
      ],
      "available_markets": [
        "AD",
        "AR",
        "AT",
        "AU",
        "BE",
        "BG",
        "BO",
        "BR",
        "CA",
        "CH",
        "CL",
        "CO",
        "CR",
        "CY",
        "CZ",
        "DE",
        "DK",
        "DO",
        "EC",
        "EE",
        "ES",
        "FI",
        "FR",
        "GB",
        "GR",
        "GT",
        "HK",
        "HN",
        "HU",
        "ID",
        "IE",
        "IS",
        "IT",
        "JP",
        "LI",
        "LT",
        "LU",
        "LV",
        "MC",
        "MT",
        "MX",
        "MY",
        "NI",
        "NL",
        "NO",
        "NZ",
        "PA",
        "PE",
        "PH",
        "PL",
        "PT",
        "PY",
        "SE",
        "SG",
        "SK",
        "SV",
        "TR",
        "TW",
        "US",
        "UY"
      ],
      "disc_number": 1,
      "duration_ms": 353410,
      "explicit": false,
      "external_urls": {
        "spotify": "https://open.spotify.com/track/34VdDeG812A2A5ZZJfzVi8"
      },
      "href": "https://api.spotify.com/v1/tracks/34VdDeG812A2A5ZZJfzVi8",
      "id": "34VdDeG812A2A5ZZJfzVi8",
      "name": "Talk to Me - I Do Mix",
      "preview_url": "https://p.scdn.co/mp3-preview/2b8c8bb04ddd781650b77b89d213e1d8b6c8ba26",
      "track_number": 12,
      "type": "track",
      "uri": "spotify:track:34VdDeG812A2A5ZZJfzVi8"
    },
    {
      "artists": [
        {
          "external_urls": {
            "spotify": "https://open.spotify.com/artist/0YC192cP3KPCRWx8zr8MfZ"
          },
          "href": "https://api.spotify.com/v1/artists/0YC192cP3KPCRWx8zr8MfZ",
          "id": "0YC192cP3KPCRWx8zr8MfZ",
          "name": "Hans Zimmer",
          "type": "artist",
          "uri": "spotify:artist:0YC192cP3KPCRWx8zr8MfZ"
        },
        {
          "external_urls": {
            "spotify": "https://open.spotify.com/artist/5svDnd8joFhbpbA3Ar0CfN"
          },
          "href": "https://api.spotify.com/v1/artists/5svDnd8joFhbpbA3Ar0CfN",
          "id": "5svDnd8joFhbpbA3Ar0CfN",
          "name": "Junkie XL",
          "type": "artist",
          "uri": "spotify:artist:5svDnd8joFhbpbA3Ar0CfN"
        }
      ],
      "available_markets": [
        "AD",
        "AR",
        "AT",
        "AU",
        "BE",
        "BG",
        "BO",
        "BR",
        "CH",
        "CL",
        "CO",
        "CR",
        "CY",
        "CZ",
        "DE",
        "DK",
        "DO",
        "EC",
        "EE",
        "ES",
        "FI",
        "FR",
        "GB",
        "GR",
        "GT",
        "HK",
        "HN",
        "HU",
        "ID",
        "IE",
        "IS",
        "IT",
        "JP",
        "LI",
        "LT",
        "LU",
        "LV",
        "MC",
        "MT",
        "MX",
        "MY",
        "NI",
        "NL",
        "NO",
        "NZ",
        "PA",
        "PE",
        "PH",
        "PL",
        "PT",
        "PY",
        "SE",
        "SG",
        "SK",
        "SV",
        "TR",
        "TW",
        "UY"
      ],
      "disc_number": 1,
      "duration_ms": 243040,
      "explicit": false,
      "external_urls": {
        "spotify": "https://open.spotify.com/track/1Xs09PSwcpXDgHrlmJIkps"
      },
      "href": "https://api.spotify.com/v1/tracks/1Xs09PSwcpXDgHrlmJIkps",
      "id": "1Xs09PSwcpXDgHrlmJIkps",
      "name": "Must There Be A Superman?",
      "preview_url": "https://p.scdn.co/mp3-preview/d4f9f5eb183a98d22402ddfb6ea62461233ffc0f",
      "track_number": 5,
      "type": "track",
      "uri": "spotify:track:1Xs09PSwcpXDgHrlmJIkps"
    },
    {
      "artists": [
        {
          "external_urls": {
            "spotify": "https://open.spotify.com/artist/0YC192cP3KPCRWx8zr8MfZ"
          },
          "href": "https://api.spotify.com/v1/artists/0YC192cP3KPCRWx8zr8MfZ",
          "id": "0YC192cP3KPCRWx8zr8MfZ",
          "name": "Hans Zimmer",
          "type": "artist",
          "uri": "spotify:artist:0YC192cP3KPCRWx8zr8MfZ"
        },
        {
          "external_urls": {
            "spotify": "https://open.spotify.com/artist/5svDnd8joFhbpbA3Ar0CfN"
          },
          "href": "https://api.spotify.com/v1/artists/5svDnd8joFhbpbA3Ar0CfN",
          "id": "5svDnd8joFhbpbA3Ar0CfN",
          "name": "Junkie XL",
          "type": "artist",
          "uri": "spotify:artist:5svDnd8joFhbpbA3Ar0CfN"
        }
      ],
      "available_markets": [
        "AD",
        "AR",
        "AT",
        "AU",
        "BE",
        "BG",
        "BO",
        "BR",
        "CH",
        "CL",
        "CO",
        "CR",
        "CY",
        "CZ",
        "DE",
        "DK",
        "DO",
        "EC",
        "EE",
        "ES",
        "FI",
        "FR",
        "GB",
        "GR",
        "GT",
        "HK",
        "HN",
        "HU",
        "ID",
        "IE",
        "IS",
        "IT",
        "JP",
        "LI",
        "LT",
        "LU",
        "LV",
        "MC",
        "MT",
        "MX",
        "MY",
        "NI",
        "NL",
        "NO",
        "NZ",
        "PA",
        "PE",
        "PH",
        "PL",
        "PT",
        "PY",
        "SE",
        "SG",
        "SK",
        "SV",
        "TR",
        "TW",
        "UY"
      ],
      "disc_number": 1,
      "duration_ms": 243946,
      "explicit": false,
      "external_urls": {
        "spotify": "https://open.spotify.com/track/23ubrUpqmJiBAhcIDvm5JY"
      },
      "href": "https://api.spotify.com/v1/tracks/23ubrUpqmJiBAhcIDvm5JY",
      "id": "23ubrUpqmJiBAhcIDvm5JY",
      "name": "New Rules",
      "preview_url": "https://p.scdn.co/mp3-preview/19eee80c23d7b071a9b21cdea74754a097599b27",
      "track_number": 6,
      "type": "track",
      "uri": "spotify:track:23ubrUpqmJiBAhcIDvm5JY"
    },
    {
      "artists": [
        {
          "external_urls": {
            "spotify": "https://open.spotify.com/artist/0YC192cP3KPCRWx8zr8MfZ"
          },
          "href": "https://api.spotify.com/v1/artists/0YC192cP3KPCRWx8zr8MfZ",
          "id": "0YC192cP3KPCRWx8zr8MfZ",
          "name": "Hans Zimmer",
          "type": "artist",
          "uri": "spotify:artist:0YC192cP3KPCRWx8zr8MfZ"
        },
        {
          "external_urls": {
            "spotify": "https://open.spotify.com/artist/5svDnd8joFhbpbA3Ar0CfN"
          },
          "href": "https://api.spotify.com/v1/artists/5svDnd8joFhbpbA3Ar0CfN",
          "id": "5svDnd8joFhbpbA3Ar0CfN",
          "name": "Junkie XL",
          "type": "artist",
          "uri": "spotify:artist:5svDnd8joFhbpbA3Ar0CfN"
        }
      ],
      "available_markets": [
        "AD",
        "AR",
        "AT",
        "AU",
        "BE",
        "BG",
        "BO",
        "BR",
        "CH",
        "CL",
        "CO",
        "CR",
        "CY",
        "CZ",
        "DE",
        "DK",
        "DO",
        "EC",
        "EE",
        "ES",
        "FI",
        "FR",
        "GB",
        "GR",
        "GT",
        "HK",
        "HN",
        "HU",
        "ID",
        "IE",
        "IS",
        "IT",
        "JP",
        "LI",
        "LT",
        "LU",
        "LV",
        "MC",
        "MT",
        "MX",
        "MY",
        "NI",
        "NL",
        "NO",
        "NZ",
        "PA",
        "PE",
        "PH",
        "PL",
        "PT",
        "PY",
        "SE",
        "SG",
        "SK",
        "SV",
        "TR",
        "TW",
        "UY"
      ],
      "disc_number": 1,
      "duration_ms": 276373,
      "explicit": false,
      "external_urls": {
        "spotify": "https://open.spotify.com/track/10oUjg1uWR4qqQRiXeXhXB"
      },
      "href": "https://api.spotify.com/v1/tracks/10oUjg1uWR4qqQRiXeXhXB",
      "id": "10oUjg1uWR4qqQRiXeXhXB",
      "name": "Do You Bleed?",
      "preview_url": "https://p.scdn.co/mp3-preview/6dce12c23a5eaeafb714a7c37087b5f92c84e974",
      "track_number": 7,
      "type": "track",
      "uri": "spotify:track:10oUjg1uWR4qqQRiXeXhXB"
    }
  ]
}